^D:\FOREVERSCRIPTS\FONLINERELOADED2NDSEASONPART1ORG\SERVER\EXTENSIONS\PARAMETERS\PARAMETERS.CPP
C:\PROGRAM FILES (X86)\MICROSOFT VISUAL STUDIO 10.0\VC\BIN\1033\CLUI.DLL
C:\WINDOWS\GLOBALIZATION\SORTING\SORTDEFAULT.NLS
C:\PROGRAM FILES (X86)\MICROSOFT VISUAL STUDIO 10.0\COMMON7\IDE\MSPDBSRV.EXE
C:\WINDOWS\SYSTEM32\TZRES.DLL
D:\FOREVERSCRIPTS\FONLINERELOADED2NDSEASONPART1ORG\SERVER\EXTENSIONS\FONLINE2238.H
D:\FOREVERSCRIPTS\FONLINERELOADED2NDSEASONPART1ORG\SERVER\SCRIPTS\_DEFINES.FOS
D:\FOREVERSCRIPTS\FONLINERELOADED2NDSEASONPART1ORG\SERVER\SCRIPTS\_BASETYPES.FOS
D:\FOREVERSCRIPTS\FONLINERELOADED2NDSEASONPART1ORG\SERVER\EXTENSIONS\FONLINE.H
^D:\GAMES\FOF\SRVB\SERVER\EXTENSIONS\PARAMETERS\PARAMETERS.CPP
C:\PROGRAM FILES (X86)\MICROSOFT VISUAL STUDIO 10.0\VC\BIN\1033\CLUI.DLL
C:\WINDOWS\GLOBALIZATION\SORTING\SORTDEFAULT.NLS
C:\WINDOWS\SYSTEM32\RSAENH.DLL
C:\PROGRAM FILES (X86)\MICROSOFT VISUAL STUDIO 10.0\COMMON7\IDE\MSPDBSRV.EXE
C:\WINDOWS\SYSTEM32\TZRES.DLL
D:\GAMES\FOF\SRVB\SERVER\EXTENSIONS\FONLINE2238.H
D:\GAMES\FOF\SRVB\SERVER\SCRIPTS\_DEFINES.FOS
D:\GAMES\FOF\SRVB\SERVER\SCRIPTS\_BASETYPES.FOS
D:\GAMES\FOF\SRVB\SERVER\EXTENSIONS\FONLINE.H
