^D:\FOREVERSCRIPTS\FONLINERELOADED2NDSEASONPART1ORG\SERVER\EXTENSIONS\PARAMETERS\PARAMETERS.CPP
D:\FOREVERSCRIPTS\FONLINERELOADED2NDSEASONPART1ORG\SERVER\EXTENSIONS\PARAMETERS\DEBUG\VC100.PDB
^D:\GAMES\FOF\SRVB\SERVER\EXTENSIONS\PARAMETERS\PARAMETERS.CPP
D:\GAMES\FOF\SRVB\SERVER\EXTENSIONS\PARAMETERS\DEBUG\VC100.PDB
