^D:\FOREVERSCRIPTS\TESTSERVER\SERVER\EXTENSIONS\MAPPERUTILS\MAPPERUTILS.CPP
D:\FOREVERSCRIPTS\TESTSERVER\SERVER\EXTENSIONS\MAPPERUTILS\RELEASE\MAPPERUTILS.OBJ
D:\FOREVERSCRIPTS\TESTSERVER\SERVER\EXTENSIONS\MAPPERUTILS\RELEASE\VC100.PDB
^D:\GAMES\FOF\SRVB\SERVER\EXTENSIONS\MAPPERUTILS\MAPPERUTILS.CPP
D:\GAMES\FOF\SRVB\SERVER\EXTENSIONS\MAPPERUTILS\RELEASE\MAPPERUTILS.OBJ
D:\GAMES\FOF\SRVB\SERVER\EXTENSIONS\MAPPERUTILS\RELEASE\VC100.PDB
