[17/12/2017 18:36:10] Authenticated: Ravenis (client->admin)
[17/12/2017 18:36:10] ViceDice666(12)(279)(Admin)GM Tools: access granted (3)
[17/12/2017 18:36:11] ViceDice666(12)(279)(Admin)command give 26 100
[17/12/2017 18:36:18] ViceDice666(12)(279)(Admin)command param 0 527 1
[17/12/2017 18:36:19] ViceDice666(12)(0)(Admin) has entered worldmap
[17/12/2017 18:36:35] ViceDice666(12)(280)(Admin) has entered map 280
[17/12/2017 18:36:42] ViceDice666(12)(0)(Admin) has entered worldmap
[17/12/2017 18:37:10] ViceDice666(12)(0)(Admin)GM Tools: access granted (3)
[17/12/2017 18:37:10] ViceDice666(12)(0)(Admin)command param 0 207 200
[17/12/2017 18:37:15] ViceDice666(12)(0)(Admin)command param 0 206 200
[17/12/2017 18:37:28] ViceDice666(12)(281)(Admin) has entered map 281
[17/12/2017 18:37:36] ViceDice666(12)(0)(Admin) has entered worldmap
[17/12/2017 18:37:41] ViceDice666(12)(0)(Admin)command param 0 217 100
[17/12/2017 18:37:57] ViceDice666(12)(284)(Admin) has entered map 284
[17/12/2017 18:38:10] ViceDice666(12)(284)(Admin)GM Tools: access granted (3)
[17/12/2017 18:40:23] ViceDice666(12)(0)GMTools: check access fail <1>
[17/12/2017 18:40:28] Authenticated: Ravenis (client->admin)
[17/12/2017 18:40:28] ViceDice666(12)(0)(Admin)GM Tools: access granted (3)
[17/12/2017 18:40:32] ViceDice666(12)(0)(Admin)command param 0 217 200
[17/12/2017 18:40:34] ViceDice666(12)(275)(Admin) has entered map 275
[17/12/2017 18:40:40] ViceDice666(12)(275)(Admin)command param 0 206 200
[17/12/2017 18:40:41] ViceDice666(12)(0)(Admin) has entered worldmap
[17/12/2017 18:41:00] ViceDice666(12)(0)(Admin)command give 26 100
[17/12/2017 18:41:05] ViceDice666(12)(276)(Admin) has entered map 276
[17/12/2017 18:41:15] ViceDice666(12)(276)(Admin)command param 0 527 1
[17/12/2017 18:41:28] ViceDice666(12)(276)(Admin)GM Tools: access granted (3)
[17/12/2017 18:42:03] ViceDice666(12)(276)(Admin)command gameinfo 1
[17/12/2017 18:42:32] ViceDice666(12)(276)(Admin)command give 26 1000
[17/12/2017 18:43:22] ViceDice666(12)(276)(Admin)GM Tools: access granted (3)
[17/12/2017 18:43:28] ViceDice666(12)(276)(Admin)GMT: runscript dev_menu@Airstrike 0 65 77
[17/12/2017 18:43:28] ViceDice666(12)(276)(Admin)using airstrike
[17/12/2017 18:43:28] ViceDice666(12)(276)(Admin)GMT: runscript dev_menu@Airstrike 0 65 77
[17/12/2017 18:43:28] ViceDice666(12)(276)(Admin)using airstrike
[17/12/2017 18:43:28] ViceDice666(12)(276)(Admin)GMT: runscript dev_menu@Airstrike 0 65 77
[17/12/2017 18:43:28] ViceDice666(12)(276)(Admin)using airstrike
[17/12/2017 18:43:28] ViceDice666(12)(276)(Admin)GMT: runscript dev_menu@Airstrike 0 65 77
[17/12/2017 18:43:28] ViceDice666(12)(276)(Admin)using airstrike
[17/12/2017 18:43:29] ViceDice666(12)(276)(Admin)GMT: runscript dev_menu@Airstrike 0 65 77
[17/12/2017 18:43:29] ViceDice666(12)(276)(Admin)using airstrike
[17/12/2017 18:43:29] ViceDice666(12)(276)(Admin)GMT: runscript dev_menu@Airstrike 0 65 77
[17/12/2017 18:43:29] ViceDice666(12)(276)(Admin)using airstrike
[17/12/2017 18:43:29] ViceDice666(12)(276)(Admin)GMT: runscript dev_menu@Airstrike 0 65 77
[17/12/2017 18:43:29] ViceDice666(12)(276)(Admin)using airstrike
[17/12/2017 18:43:29] ViceDice666(12)(276)(Admin)GMT: runscript dev_menu@Airstrike 0 65 77
[17/12/2017 18:43:29] ViceDice666(12)(276)(Admin)using airstrike
[17/12/2017 18:43:29] ViceDice666(12)(276)(Admin)GMT: runscript dev_menu@Airstrike 0 65 77
[17/12/2017 18:43:29] ViceDice666(12)(276)(Admin)using airstrike
[17/12/2017 18:43:35] ViceDice666(12)(276)(Admin) dropped item PID 26
[17/12/2017 18:46:05] Authenticated: Ravenis (client->admin)
[17/12/2017 18:46:05] ViceDice666(12)(278)(Admin)GM Tools: access granted (3)
[17/12/2017 18:46:08] ViceDice666(12)(278)(Admin)command give 26 100
[17/12/2017 18:46:11] ViceDice666(12)(278)(Admin)command param 0 217 100
[17/12/2017 18:46:13] ViceDice666(12)(278)(Admin)command param 0 206 200
[17/12/2017 18:46:17] ViceDice666(12)(278)(Admin)command param 0 205 100
[17/12/2017 18:47:37] ViceDice666(12)(0)GMTools: check access fail <1>
[17/12/2017 18:47:42] ViceDice666(12)(279) has entered map 279
[17/12/2017 18:50:33] ViceDice666(12)(279) has entered map 279
[17/12/2017 18:51:00] ViceDice666(12)(279) was attacked by ViceDice666(12)(279)
[17/12/2017 18:52:07] ViceDice666(12)(130) has entered worldmap
[17/12/2017 18:52:07] ViceDice666(12)(130) has entered map 130
[17/12/2017 18:52:41] ViceDice666(12)(130) has entered map 130
[17/12/2017 18:52:55] ViceDice666(12)(0) has entered worldmap
[17/12/2017 18:53:13] ViceDice666(12)(283) has entered map 283
[17/12/2017 18:54:04] ViceDice666(12)(0) has entered worldmap
[17/12/2017 18:54:14] ViceDice666(12)(43) has entered map 43
[17/12/2017 20:43:34] ViceDice666(12)(130) has entered map 130
[17/12/2017 20:44:16] ViceDice666(12)(0) has entered worldmap
[17/12/2017 20:44:36] ViceDice666(12)(286) has entered map 286
[17/12/2017 20:44:44] ViceDice666(12)(0) has entered worldmap
[17/12/2017 20:44:48] ViceDice666(12)(283) has entered map 283
[17/12/2017 20:44:56] ViceDice666(12)(0) has entered worldmap
[17/12/2017 20:46:34] ViceDice666(12)(130) has entered map 130
[17/12/2017 20:46:48] ViceDice666(12)(0) has entered worldmap
[17/12/2017 20:47:04] ViceDice666(12)(283) has entered map 283
[17/12/2017 20:47:11] ViceDice666(12)(0) has entered worldmap
[17/12/2017 20:47:36] ViceDice666(12)(287) has entered map 287
[17/12/2017 20:47:43] ViceDice666(12)(0) has entered worldmap
[17/12/2017 20:48:01] ViceDice666(12)(288) has entered map 288
[17/12/2017 20:48:09] ViceDice666(12)(0) has entered worldmap
[17/12/2017 20:48:18] ViceDice666(12)(284) has entered map 284
[17/12/2017 20:57:53] ViceDice666(12)(291) has entered map 291
[17/12/2017 20:57:57] Authenticated: Ravenis (client->admin)
[17/12/2017 20:57:57] ViceDice666(12)(291)(Admin)GM Tools: access granted (3)
[17/12/2017 20:58:00] ViceDice666(12)(291)(Admin)command param 0 217 300
[17/12/2017 20:58:12] ViceDice666(12)(291)(Admin)command spawnitem 9683 1 -script item_dungeon_map@_DungeonMapIni
[17/12/2017 20:58:13] ViceDice666(12)(291)(Admin)command spawnitem 9683 1 -script item_dungeon_map@_DungeonMapInit
[17/12/2017 20:59:28] ViceDice666(12)(291) has entered map 291
[17/12/2017 20:59:31] Authenticated: Ravenis (client->admin)
[17/12/2017 20:59:31] ViceDice666(12)(291)(Admin)GM Tools: access granted (3)
[17/12/2017 20:59:43] ViceDice666(12)(291)(Admin)command spawnitem 9683 1 -script item_dungeon_map@_DungeonMapInit
[17/12/2017 20:59:56] ViceDice666(12)(291)(Admin)command param 0 217 300
[17/12/2017 20:59:57] ViceDice666(12)(0)(Admin) has entered worldmap
[17/12/2017 21:00:14] ViceDice666(12)(296)(Admin) has entered map 296
[17/12/2017 21:00:16] ViceDice666(12)(296)(Admin)command param 0 217 120000000000000000000000000000000000
[17/12/2017 21:00:22] ViceDice666(12)(296)(Admin)command param 0 217 12000
[17/12/2017 21:00:24] ViceDice666(12)(0)(Admin) has entered worldmap
[17/12/2017 21:00:31] ViceDice666(12)(292)(Admin) has entered map 292
[17/12/2017 21:00:31] ViceDice666(12)(292)(Admin)GM Tools: access granted (3)
[17/12/2017 21:00:45] ViceDice666(12)(292)(Admin)command param 0 209 399
[17/12/2017 21:01:29] ViceDice666(12)(0)(Admin) has entered worldmap
[17/12/2017 22:36:15] ViceDice666(12)(291) has entered map 291
[17/12/2017 22:36:25] Authenticated: Ravenis (client->admin)
[17/12/2017 22:36:25] ViceDice666(12)(291)(Admin)GM Tools: access granted (3)
[17/12/2017 22:36:27] ViceDice666(12)(291)(Admin)command give 28 1
[17/12/2017 22:36:30] ViceDice666(12)(291)(Admin)command give 15 1
[17/12/2017 22:36:32] ViceDice666(12)(291)(Admin)command give 14 1
[17/12/2017 22:36:34] ViceDice666(12)(291)(Admin)command give 13 1
[17/12/2017 22:36:39] ViceDice666(12)(291)(Admin) dropped item PID 13
[17/12/2017 22:36:44] ViceDice666(12)(291)(Admin)command addmob 1
[17/12/2017 22:37:01] ViceDice666(12)(291)(Admin)command addmob 1
[17/12/2017 22:37:25] ViceDice666(12)(291)(Admin)GM Tools: access granted (3)
[17/12/2017 22:38:26] ViceDice666(12)(0)GMTools: check access fail <1>
[17/12/2017 22:38:26] ViceDice666(12)(291) has entered map 291
[17/12/2017 22:38:31] Authenticated: Ravenis (client->admin)
[17/12/2017 22:38:31] ViceDice666(12)(291)(Admin)GM Tools: access granted (3)
[17/12/2017 22:38:32] ViceDice666(12)(291)(Admin)command give 13 1
[17/12/2017 22:38:34] ViceDice666(12)(291)(Admin)command give 14 100
[17/12/2017 22:38:36] ViceDice666(12)(291)(Admin)command iddqd
[17/12/2017 22:38:40] ViceDice666(12)(291)(Admin) was attacked by ViceDice666(12)(291)(Admin)
[17/12/2017 22:39:31] ViceDice666(12)(291)(Admin)GM Tools: access granted (3)
[17/12/2017 22:40:13] ViceDice666(12)(284) has entered map 284
[17/12/2017 22:40:14] ViceDice666(12)(284)GMTools: check access fail <1>
[17/12/2017 22:40:14] ViceDice666(12)(284)GMTools: check access fail <1>
[17/12/2017 22:40:17] Authenticated: Ravenis (client->admin)
[17/12/2017 22:40:17] ViceDice666(12)(284)(Admin)GM Tools: access granted (3)
[17/12/2017 22:40:19] ViceDice666(12)(284)(Admin)command give 13 1
[17/12/2017 22:40:22] ViceDice666(12)(284)(Admin)command iddqd
[17/12/2017 22:40:24] ViceDice666(12)(284)(Admin)command give 14 100
[17/12/2017 22:42:27] ViceDice666(12)(284) has entered map 284
[17/12/2017 22:42:32] Authenticated: Ravenis (client->admin)
[17/12/2017 22:42:32] ViceDice666(12)(284)(Admin)GM Tools: access granted (3)
[17/12/2017 22:42:34] ViceDice666(12)(284)(Admin)command give 13 1
[17/12/2017 22:42:36] ViceDice666(12)(284)(Admin)command give 14 100
[17/12/2017 22:42:39] ViceDice666(12)(284)(Admin)command iddqd
[17/12/2017 22:43:32] ViceDice666(12)(284)(Admin)GM Tools: access granted (3)
[17/12/2017 22:44:13] ViceDice666(12)(291) has entered map 291
[17/12/2017 22:44:14] ViceDice666(12)(291)GMTools: check access fail <1>
[17/12/2017 22:44:14] ViceDice666(12)(291)GMTools: check access fail <1>
[17/12/2017 22:44:19] Authenticated: Ravenis (client->admin)
[17/12/2017 22:44:19] ViceDice666(12)(291)(Admin)GM Tools: access granted (3)
[17/12/2017 22:44:20] ViceDice666(12)(291)(Admin)command give 13 1
[17/12/2017 22:44:22] ViceDice666(12)(291)(Admin)command give 14 1
[17/12/2017 22:44:24] ViceDice666(12)(291)(Admin)command give 14 99
[17/12/2017 22:44:26] ViceDice666(12)(291)(Admin)command iddqd
[17/12/2017 22:44:30] ViceDice666(12)(291)(Admin)command addmob 1
[17/12/2017 22:44:31] ViceDice666(12)(291)(Admin) was attacked by ViceDice666(12)(291)(Admin)
[17/12/2017 22:44:43] ViceDice666(12)(291)(Admin)command addmob 1
[17/12/2017 22:44:48] ViceDice666(12)(291)(Admin) was attacked by ViceDice666(12)(291)(Admin)
[17/12/2017 22:45:19] ViceDice666(12)(291)(Admin)GM Tools: access granted (3)
[17/12/2017 22:46:19] ViceDice666(12)(291)(Admin)GM Tools: access granted (3)
[17/12/2017 22:47:08] ViceDice666(12)(291) has entered map 291
[17/12/2017 22:47:11] Authenticated: Ravenis (client->admin)
[17/12/2017 22:47:11] ViceDice666(12)(291)(Admin)GM Tools: access granted (3)
[17/12/2017 22:47:12] ViceDice666(12)(291)(Admin)command give 13 1
[17/12/2017 22:47:14] ViceDice666(12)(291)(Admin)command give 14 100
[17/12/2017 22:47:15] ViceDice666(12)(291)(Admin)command iddqd
[17/12/2017 22:47:18] ViceDice666(12)(291)(Admin)command addmob 1
[17/12/2017 22:47:22] ViceDice666(12)(291)(Admin) was attacked by ViceDice666(12)(291)(Admin)
[17/12/2017 22:48:44] ViceDice666(12)(0)GMTools: check access fail <1>
[17/12/2017 22:48:45] ViceDice666(12)(295) has entered map 295
[17/12/2017 22:49:15] ViceDice666(12)(295) was attacked by ViceDice666(12)(295)
[17/12/2017 22:52:33] ViceDice666(12)(299) has entered map 299
[17/12/2017 22:52:39] Authenticated: Ravenis (client->admin)
[17/12/2017 22:52:39] ViceDice666(12)(299)(Admin)GM Tools: access granted (3)
[17/12/2017 22:52:41] ViceDice666(12)(299)(Admin)command addmob 1
[17/12/2017 22:52:51] ViceDice666(12)(299)(Admin)command addmob 1
[17/12/2017 22:53:16] ViceDice666(12)(299)(Admin)command addmob 1
[17/12/2017 22:53:24] ViceDice666(12)(299)(Admin)command addmob 1
[17/12/2017 22:53:39] ViceDice666(12)(299)(Admin)GM Tools: access granted (3)
[17/12/2017 22:54:39] ViceDice666(12)(299)(Admin)GM Tools: access granted (3)
[17/12/2017 22:55:39] ViceDice666(12)(299)(Admin)GM Tools: access granted (3)
[17/12/2017 22:56:49] ViceDice666(12)(0)GMTools: check access fail <1>
[17/12/2017 22:56:50] ViceDice666(12)(305) has entered map 305
[17/12/2017 22:56:54] Authenticated: Ravenis (client->admin)
[17/12/2017 22:56:54] ViceDice666(12)(305)(Admin)GM Tools: access granted (3)
[17/12/2017 22:56:56] ViceDice666(12)(305)(Admin)command addmob 1
[17/12/2017 22:57:54] ViceDice666(12)(305)(Admin)GM Tools: access granted (3)
[17/12/2017 22:58:54] ViceDice666(12)(305)(Admin)GM Tools: access granted (3)
[17/12/2017 23:00:00] ViceDice666(12)(0)GMTools: check access fail <1>
[17/12/2017 23:00:01] ViceDice666(12)(309) has entered map 309
[17/12/2017 23:00:06] Authenticated: Ravenis (client->admin)
[17/12/2017 23:00:06] ViceDice666(12)(309)(Admin)GM Tools: access granted (3)
[17/12/2017 23:00:09] ViceDice666(12)(309)(Admin)command addmob 1
[17/12/2017 23:01:17] ViceDice666(12)(309) has entered map 309
[17/12/2017 23:01:23] Authenticated: Ravenis (client->admin)
[17/12/2017 23:01:23] ViceDice666(12)(309)(Admin)GM Tools: access granted (3)
[17/12/2017 23:01:24] ViceDice666(12)(309)(Admin)command addmob 1
[17/12/2017 23:01:26] ViceDice666(12)(309)(Admin) was attacked by ViceDice666(12)(309)(Admin)
[17/12/2017 23:02:23] ViceDice666(12)(309)(Admin)GM Tools: access granted (3)
[17/12/2017 23:03:23] ViceDice666(12)(309)(Admin)GM Tools: access granted (3)
[17/12/2017 23:07:50] ViceDice666(12)(309) has entered map 309
[17/12/2017 23:07:56] Authenticated: Ravenis (client->admin)
[17/12/2017 23:07:56] ViceDice666(12)(309)(Admin)GM Tools: access granted (3)
[17/12/2017 23:07:58] ViceDice666(12)(309)(Admin)command addmob 1
[17/12/2017 23:08:02] ViceDice666(12)(309)(Admin) was attacked by ViceDice666(12)(309)(Admin)
[17/12/2017 23:09:22] ViceDice666(12)(0)GMTools: check access fail <1>
[17/12/2017 23:09:23] ViceDice666(12)(310) has entered map 310
[17/12/2017 23:11:51] ViceDice666(12)(310) has entered map 310
[17/12/2017 23:11:56] Authenticated: Ravenis (client->admin)
[17/12/2017 23:11:56] ViceDice666(12)(310)(Admin)GM Tools: access granted (3)
[17/12/2017 23:11:59] ViceDice666(12)(310)(Admin)command addmob 1
[17/12/2017 23:12:00] ViceDice666(12)(310)(Admin) was attacked by ViceDice666(12)(310)(Admin)
[17/12/2017 23:12:05] ViceDice666(12)(310)(Admin)command addmob 1
[17/12/2017 23:12:07] ViceDice666(12)(310)(Admin)command addmob 1
[17/12/2017 23:12:07] ViceDice666(12)(310)(Admin)command addmob 1
[17/12/2017 23:12:07] ViceDice666(12)(310)(Admin)command addmob 1
[17/12/2017 23:12:07] ViceDice666(12)(310)(Admin)command addmob 1
[17/12/2017 23:12:07] ViceDice666(12)(310)(Admin)command addmob 1
[17/12/2017 23:12:12] ViceDice666(12)(310)(Admin)command addmob 1
[17/12/2017 23:12:14] ViceDice666(12)(310)(Admin) was attacked by ViceDice666(12)(310)(Admin)
[17/12/2017 23:12:15] ViceDice666(12)(310)(Admin)command addmob 1
[17/12/2017 23:12:17] ViceDice666(12)(310)(Admin) was attacked by ViceDice666(12)(310)(Admin)
[17/12/2017 23:13:48] ViceDice666(12)(310) has entered map 310
[17/12/2017 23:13:53] Authenticated: Ravenis (client->admin)
[17/12/2017 23:13:53] ViceDice666(12)(310)(Admin)GM Tools: access granted (3)
[17/12/2017 23:13:54] ViceDice666(12)(310)(Admin)command addmob
[17/12/2017 23:13:57] ViceDice666(12)(310)(Admin)command addmob 1
[17/12/2017 23:13:58] ViceDice666(12)(310)(Admin) was attacked by ViceDice666(12)(310)(Admin)
[17/12/2017 23:14:03] ViceDice666(12)(310)(Admin)command addmob 1
[17/12/2017 23:14:05] ViceDice666(12)(310)(Admin) was attacked by ViceDice666(12)(310)(Admin)
[17/12/2017 23:14:06] ViceDice666(12)(310)(Admin)command addmob 1
[17/12/2017 23:14:07] ViceDice666(12)(310)(Admin) was attacked by ViceDice666(12)(310)(Admin)
[17/12/2017 23:14:12] ViceDice666(12)(310)(Admin)command addmob 1
[17/12/2017 23:14:15] ViceDice666(12)(310)(Admin) was attacked by ViceDice666(12)(310)(Admin)
[17/12/2017 23:14:16] ViceDice666(12)(310)(Admin)command addmob 1
[17/12/2017 23:14:18] ViceDice666(12)(310)(Admin) was attacked by ViceDice666(12)(310)(Admin)
[17/12/2017 23:14:19] ViceDice666(12)(310)(Admin)command addmob 1
[17/12/2017 23:14:27] ViceDice666(12)(310)(Admin)command addmob 1
[17/12/2017 23:14:29] ViceDice666(12)(310)(Admin) was attacked by ViceDice666(12)(310)(Admin)
[17/12/2017 23:14:31] ViceDice666(12)(310)(Admin)command addmob 1
[17/12/2017 23:14:32] ViceDice666(12)(310)(Admin) was attacked by ViceDice666(12)(310)(Admin)
[17/12/2017 23:14:37] ViceDice666(12)(310)(Admin)command addmob 1
[17/12/2017 23:14:39] ViceDice666(12)(310)(Admin) was attacked by ViceDice666(12)(310)(Admin)
[17/12/2017 23:14:40] ViceDice666(12)(310)(Admin)command addmob 1
[17/12/2017 23:14:42] ViceDice666(12)(310)(Admin) was attacked by ViceDice666(12)(310)(Admin)
[17/12/2017 23:14:43] ViceDice666(12)(310)(Admin)command addmob 1
[17/12/2017 23:14:45] ViceDice666(12)(310)(Admin) was attacked by ViceDice666(12)(310)(Admin)
[17/12/2017 23:14:49] ViceDice666(12)(310)(Admin)command addmob 1
[17/12/2017 23:14:51] ViceDice666(12)(310)(Admin) was attacked by ViceDice666(12)(310)(Admin)
[17/12/2017 23:14:52] ViceDice666(12)(310)(Admin)command addmob 1
[17/12/2017 23:14:53] ViceDice666(12)(310)(Admin)GM Tools: access granted (3)
[17/12/2017 23:14:55] ViceDice666(12)(310)(Admin) was attacked by ViceDice666(12)(310)(Admin)
[17/12/2017 23:15:55] ViceDice666(12)(310) has entered map 310
[17/12/2017 23:15:55] ViceDice666(12)(310)GMTools: check access fail <1>
[17/12/2017 23:16:00] Authenticated: Ravenis (client->admin)
[17/12/2017 23:16:00] ViceDice666(12)(310)(Admin)GM Tools: access granted (3)
[17/12/2017 23:16:02] ViceDice666(12)(310)(Admin)command addmob 1
[17/12/2017 23:16:03] ViceDice666(12)(310)(Admin) was attacked by ViceDice666(12)(310)(Admin)
[17/12/2017 23:16:08] ViceDice666(12)(310)(Admin)command addmob 1
[17/12/2017 23:16:10] ViceDice666(12)(310)(Admin) was attacked by ViceDice666(12)(310)(Admin)
[17/12/2017 23:16:13] ViceDice666(12)(310)(Admin)command addmob 1
[17/12/2017 23:16:14] ViceDice666(12)(310)(Admin) was attacked by ViceDice666(12)(310)(Admin)
[17/12/2017 23:16:18] ViceDice666(12)(310)(Admin)command addmob 1
[17/12/2017 23:16:19] ViceDice666(12)(310)(Admin) was attacked by ViceDice666(12)(310)(Admin)
[17/12/2017 23:16:21] ViceDice666(12)(310)(Admin)command addmob 1
[17/12/2017 23:16:22] ViceDice666(12)(310)(Admin) was attacked by ViceDice666(12)(310)(Admin)
[17/12/2017 23:16:24] ViceDice666(12)(310)(Admin)command addmob 1
[17/12/2017 23:16:28] ViceDice666(12)(310)(Admin) was attacked by ViceDice666(12)(310)(Admin)
[17/12/2017 23:16:30] ViceDice666(12)(310)(Admin)command addmob 1
[17/12/2017 23:16:32] ViceDice666(12)(310)(Admin) was attacked by ViceDice666(12)(310)(Admin)
[17/12/2017 23:16:36] ViceDice666(12)(310)(Admin)command addmob 1
[17/12/2017 23:16:37] ViceDice666(12)(310)(Admin) was attacked by ViceDice666(12)(310)(Admin)
[17/12/2017 23:17:00] ViceDice666(12)(310)(Admin)GM Tools: access granted (3)
[17/12/2017 23:17:06] ViceDice666(12)(310)(Admin)command addmob 1
[17/12/2017 23:17:07] ViceDice666(12)(310)(Admin) was attacked by ViceDice666(12)(310)(Admin)
[17/12/2017 23:18:04] ViceDice666(12)(0)GMTools: check access fail <1>
[17/12/2017 23:18:05] ViceDice666(12)(314) has entered map 314
[17/12/2017 23:18:11] Authenticated: Ravenis (client->admin)
[17/12/2017 23:18:11] ViceDice666(12)(314)(Admin)GM Tools: access granted (3)
[17/12/2017 23:18:14] ViceDice666(12)(314)(Admin)command addmob 1
[17/12/2017 23:18:16] ViceDice666(12)(314)(Admin) was attacked by ViceDice666(12)(314)(Admin)
[18/12/2017 00:47:08] ViceDice666(12)(315) has entered map 315
[18/12/2017 00:47:12] Authenticated: Ravenis (client->admin)
[18/12/2017 00:47:12] ViceDice666(12)(315)(Admin)GM Tools: access granted (3)
[18/12/2017 00:47:14] ViceDice666(12)(315)(Admin)command addmob 1
[18/12/2017 00:47:15] ViceDice666(12)(315)(Admin) was attacked by ViceDice666(12)(315)(Admin)
[18/12/2017 00:48:12] ViceDice666(12)(315)(Admin)GM Tools: access granted (3)
[18/12/2017 00:51:16] ViceDice666(12)(319) has entered map 319
[18/12/2017 00:51:19] Authenticated: Ravenis (client->admin)
[18/12/2017 00:51:19] ViceDice666(12)(319)(Admin)GM Tools: access granted (3)
[18/12/2017 00:51:21] ViceDice666(12)(319)(Admin)command addmob 1
[18/12/2017 00:51:24] ViceDice666(12)(319)(Admin) was attacked by ViceDice666(12)(319)(Admin)
[18/12/2017 00:52:19] ViceDice666(12)(319)(Admin)GM Tools: access granted (3)
[18/12/2017 00:57:43] Authenticated: Ravenis (client->admin)
[18/12/2017 00:57:43] ViceDice666(12)(171)(Admin)GM Tools: access granted (3)
[18/12/2017 00:57:45] ViceDice666(12)(171)(Admin)command give 13 1
[18/12/2017 00:57:46] ViceDice666(12)(171)(Admin)command give 14 1
[18/12/2017 00:57:49] ViceDice666(12)(171)(Admin)command give 14 99
[18/12/2017 00:57:51] ViceDice666(12)(171)(Admin)command iddqd
[18/12/2017 00:57:53] ViceDice666(12)(171)(Admin)command addmob 1
[18/12/2017 00:57:56] ViceDice666(12)(171)(Admin) was attacked by ViceDice666(12)(171)(Admin)
[18/12/2017 00:59:10] ViceDice666(12)(0)GMTools: check access fail <1>
