^D:\FOREVERSCRIPTS\TESTSERVER\SERVER\EXTENSIONS\CHECK_LOOK\CHECK_LOOK.CPP|D:\FOREVERSCRIPTS\TESTSERVER\SERVER\EXTENSIONS\CHECK_LOOK\LOOKUP.CPP|D:\FOREVERSCRIPTS\TESTSERVER\SERVER\EXTENSIONS\CHECK_LOOK\WALKING.CPP|D:\FOREVERSCRIPTS\TESTSERVER\SERVER\EXTENSIONS\CHECK_LOOK\WALLDIST.CPP
D:\FOREVERSCRIPTS\TESTSERVER\SERVER\EXTENSIONS\CHECK_LOOK\RELEASE\WALLDIST.OBJ
D:\FOREVERSCRIPTS\TESTSERVER\SERVER\EXTENSIONS\CHECK_LOOK\RELEASE\WALKING.OBJ
D:\FOREVERSCRIPTS\TESTSERVER\SERVER\EXTENSIONS\CHECK_LOOK\RELEASE\LOOKUP.OBJ
D:\FOREVERSCRIPTS\TESTSERVER\SERVER\EXTENSIONS\CHECK_LOOK\RELEASE\CHECK_LOOK.OBJ
^D:\FOREVERSCRIPTS\TESTSERVER\SERVER\EXTENSIONS\CHECK_LOOK\CHECK_LOOK.CPP
D:\FOREVERSCRIPTS\TESTSERVER\SERVER\EXTENSIONS\CHECK_LOOK\RELEASE\VC100.PDB
^D:\FOREVERSCRIPTS\TESTSERVER\SERVER\EXTENSIONS\CHECK_LOOK\LOOKUP.CPP
D:\FOREVERSCRIPTS\TESTSERVER\SERVER\EXTENSIONS\CHECK_LOOK\RELEASE\VC100.PDB
^D:\FOREVERSCRIPTS\TESTSERVER\SERVER\EXTENSIONS\CHECK_LOOK\WALKING.CPP
D:\FOREVERSCRIPTS\TESTSERVER\SERVER\EXTENSIONS\CHECK_LOOK\RELEASE\VC100.PDB
^D:\FOREVERSCRIPTS\TESTSERVER\SERVER\EXTENSIONS\CHECK_LOOK\WALLDIST.CPP
D:\FOREVERSCRIPTS\TESTSERVER\SERVER\EXTENSIONS\CHECK_LOOK\RELEASE\VC100.PDB
^D:\GAMES\FOF\SRVB\SERVER\EXTENSIONS\CHECK_LOOK\CHECK_LOOK.CPP|D:\GAMES\FOF\SRVB\SERVER\EXTENSIONS\CHECK_LOOK\LOOKUP.CPP|D:\GAMES\FOF\SRVB\SERVER\EXTENSIONS\CHECK_LOOK\WALLDIST.CPP
D:\GAMES\FOF\SRVB\SERVER\EXTENSIONS\CHECK_LOOK\RELEASE\CHECK_LOOK.OBJ
D:\GAMES\FOF\SRVB\SERVER\EXTENSIONS\CHECK_LOOK\RELEASE\WALLDIST.OBJ
D:\GAMES\FOF\SRVB\SERVER\EXTENSIONS\CHECK_LOOK\RELEASE\LOOKUP.OBJ
^D:\GAMES\FOF\SRVB\SERVER\EXTENSIONS\CHECK_LOOK\CHECK_LOOK.CPP|D:\GAMES\FOF\SRVB\SERVER\EXTENSIONS\CHECK_LOOK\LOOKUP.CPP|D:\GAMES\FOF\SRVB\SERVER\EXTENSIONS\CHECK_LOOK\WALKING.CPP|D:\GAMES\FOF\SRVB\SERVER\EXTENSIONS\CHECK_LOOK\WALLDIST.CPP
D:\GAMES\FOF\SRVB\SERVER\EXTENSIONS\CHECK_LOOK\RELEASE\CHECK_LOOK.OBJ
D:\GAMES\FOF\SRVB\SERVER\EXTENSIONS\CHECK_LOOK\RELEASE\WALLDIST.OBJ
D:\GAMES\FOF\SRVB\SERVER\EXTENSIONS\CHECK_LOOK\RELEASE\WALKING.OBJ
D:\GAMES\FOF\SRVB\SERVER\EXTENSIONS\CHECK_LOOK\RELEASE\LOOKUP.OBJ
^D:\GAMES\FOF\SRVB\SERVER\EXTENSIONS\CHECK_LOOK\LOOKUP.CPP
D:\GAMES\FOF\SRVB\SERVER\EXTENSIONS\CHECK_LOOK\RELEASE\VC100.PDB
^D:\GAMES\FOF\SRVB\SERVER\EXTENSIONS\CHECK_LOOK\WALKING.CPP
D:\GAMES\FOF\SRVB\SERVER\EXTENSIONS\CHECK_LOOK\RELEASE\VC100.PDB
^D:\GAMES\FOF\SRVB\SERVER\EXTENSIONS\CHECK_LOOK\WALLDIST.CPP
D:\GAMES\FOF\SRVB\SERVER\EXTENSIONS\CHECK_LOOK\RELEASE\VC100.PDB
^D:\GAMES\FOF\SRVB\SERVER\EXTENSIONS\CHECK_LOOK\CHECK_LOOK.CPP
D:\GAMES\FOF\SRVB\SERVER\EXTENSIONS\CHECK_LOOK\RELEASE\VC100.PDB
