^D:\FOREVERSCRIPTS\FONLINERELOADED2NDSEASONPART1\SERVER\EXTENSIONS\BUFFER_LAZY\BUFFER_LAZY.CPP|D:\FOREVERSCRIPTS\FONLINERELOADED2NDSEASONPART1\SERVER\EXTENSIONS\UTILS\ANGELSCRIPT.CPP|D:\FOREVERSCRIPTS\FONLINERELOADED2NDSEASONPART1\SERVER\EXTENSIONS\UTILS\EXTEVENTS.CPP|D:\FOREVERSCRIPTS\FONLINERELOADED2NDSEASONPART1\SERVER\EXTENSIONS\UTILS\NOOBSERVER.CPP|D:\FOREVERSCRIPTS\FONLINERELOADED2NDSEASONPART1\SERVER\EXTENSIONS\UTILS\PROTOMAPEX.CPP|D:\FOREVERSCRIPTS\FONLINERELOADED2NDSEASONPART1\SERVER\EXTENSIONS\UTILS\UTILS.CPP
D:\FOREVERSCRIPTS\FONLINERELOADED2NDSEASONPART1\SERVER\EXTENSIONS\UTILS\DEBUG\VC120.PDB
D:\FOREVERSCRIPTS\FONLINERELOADED2NDSEASONPART1\SERVER\EXTENSIONS\UTILS\DEBUG\VC120.IDB
^D:\FOREVERSCRIPTS\FONLINERELOADED2NDSEASONPART1\SERVER\EXTENSIONS\BUFFER_LAZY\BUFFER_LAZY.CPP
D:\FOREVERSCRIPTS\FONLINERELOADED2NDSEASONPART1\SERVER\EXTENSIONS\UTILS\DEBUG\VC120.PDB
^D:\FOREVERSCRIPTS\FONLINERELOADED2NDSEASONPART1\SERVER\EXTENSIONS\UTILS\ANGELSCRIPT.CPP
D:\FOREVERSCRIPTS\FONLINERELOADED2NDSEASONPART1\SERVER\EXTENSIONS\UTILS\DEBUG\VC120.PDB
^D:\FOREVERSCRIPTS\FONLINERELOADED2NDSEASONPART1\SERVER\EXTENSIONS\UTILS\EXTEVENTS.CPP
D:\FOREVERSCRIPTS\FONLINERELOADED2NDSEASONPART1\SERVER\EXTENSIONS\UTILS\DEBUG\VC120.PDB
^D:\FOREVERSCRIPTS\FONLINERELOADED2NDSEASONPART1\SERVER\EXTENSIONS\UTILS\NOOBSERVER.CPP
D:\FOREVERSCRIPTS\FONLINERELOADED2NDSEASONPART1\SERVER\EXTENSIONS\UTILS\DEBUG\VC120.PDB
^D:\FOREVERSCRIPTS\FONLINERELOADED2NDSEASONPART1\SERVER\EXTENSIONS\UTILS\PROTOMAPEX.CPP
D:\FOREVERSCRIPTS\FONLINERELOADED2NDSEASONPART1\SERVER\EXTENSIONS\UTILS\DEBUG\VC120.PDB
^D:\FOREVERSCRIPTS\FONLINERELOADED2NDSEASONPART1\SERVER\EXTENSIONS\UTILS\UTILS.CPP
D:\FOREVERSCRIPTS\FONLINERELOADED2NDSEASONPART1\SERVER\EXTENSIONS\UTILS\DEBUG\VC120.PDB
