^D:\GAMES\FOF\SRVB\SERVER\EXTENSIONS\CLIENT_SPRITES\RELEASE\CLIENT_UTILS.OBJ|D:\GAMES\FOF\SRVB\SERVER\EXTENSIONS\CLIENT_SPRITES\RELEASE\DLLMAIN.OBJ|D:\GAMES\FOF\SRVB\SERVER\EXTENSIONS\CLIENT_SPRITES\RELEASE\SPRITES.OBJ
D:\GAMES\FOF\SRVB\SERVER\EXTENSIONS\RELEASE\CLIENT_UTILS.DLL
D:\GAMES\FOF\SRVB\SERVER\EXTENSIONS\CLIENT_SPRITES\RELEASE\CLIENT_UTILS.DLL.INTERMEDIATE.MANIFEST
D:\GAMES\FOF\SRVB\SERVER\EXTENSIONS\RELEASE\CLIENT_UTILS.PDB
