^D:\GAMES\FOF\SRVB\SERVER\EXTENSIONS\CLIENT_SPRITES\RELEASE\CLIENT_UTILS.OBJ|D:\GAMES\FOF\SRVB\SERVER\EXTENSIONS\CLIENT_SPRITES\RELEASE\DLLMAIN.OBJ|D:\GAMES\FOF\SRVB\SERVER\EXTENSIONS\CLIENT_SPRITES\RELEASE\SPRITES.OBJ
C:\PROGRAM FILES (X86)\MICROSOFT SDKS\WINDOWS\V7.0A\LIB\KERNEL32.LIB
C:\PROGRAM FILES (X86)\MICROSOFT SDKS\WINDOWS\V7.0A\LIB\USER32.LIB
C:\PROGRAM FILES (X86)\MICROSOFT SDKS\WINDOWS\V7.0A\LIB\GDI32.LIB
C:\PROGRAM FILES (X86)\MICROSOFT SDKS\WINDOWS\V7.0A\LIB\WINSPOOL.LIB
C:\PROGRAM FILES (X86)\MICROSOFT SDKS\WINDOWS\V7.0A\LIB\COMDLG32.LIB
C:\PROGRAM FILES (X86)\MICROSOFT SDKS\WINDOWS\V7.0A\LIB\ADVAPI32.LIB
C:\PROGRAM FILES (X86)\MICROSOFT SDKS\WINDOWS\V7.0A\LIB\SHELL32.LIB
C:\PROGRAM FILES (X86)\MICROSOFT SDKS\WINDOWS\V7.0A\LIB\OLE32.LIB
C:\PROGRAM FILES (X86)\MICROSOFT SDKS\WINDOWS\V7.0A\LIB\OLEAUT32.LIB
C:\PROGRAM FILES (X86)\MICROSOFT SDKS\WINDOWS\V7.0A\LIB\UUID.LIB
C:\PROGRAM FILES (X86)\MICROSOFT SDKS\WINDOWS\V7.0A\LIB\ODBC32.LIB
C:\PROGRAM FILES (X86)\MICROSOFT SDKS\WINDOWS\V7.0A\LIB\ODBCCP32.LIB
D:\GAMES\FOF\SRVB\SERVER\EXTENSIONS\CLIENT_SPRITES\RELEASE\CLIENT_UTILS.OBJ
D:\GAMES\FOF\SRVB\SERVER\EXTENSIONS\CLIENT_SPRITES\RELEASE\DLLMAIN.OBJ
D:\GAMES\FOF\SRVB\SERVER\EXTENSIONS\CLIENT_SPRITES\RELEASE\SPRITES.OBJ
C:\WINDOWS\GLOBALIZATION\SORTING\SORTDEFAULT.NLS
C:\PROGRAM FILES (X86)\MICROSOFT VISUAL STUDIO 10.0\VC\BIN\C2.DLL
D:\GAMES\FOF\SRVB\SERVER\EXTENSIONS\3RDPARTY\STLPORT\STLPORT_STATIX.LIB
C:\PROGRAM FILES (X86)\MICROSOFT VISUAL STUDIO 10.0\VC\LIB\MSVCPRT.LIB
C:\PROGRAM FILES (X86)\MICROSOFT VISUAL STUDIO 10.0\VC\LIB\MSVCRT.LIB
C:\PROGRAM FILES (X86)\MICROSOFT VISUAL STUDIO 10.0\VC\LIB\OLDNAMES.LIB
C:\WINDOWS\SYSTEM32\TZRES.DLL
C:\PROGRAM FILES (X86)\MICROSOFT VISUAL STUDIO 10.0\VC\BIN\1033\LINKUI.DLL
D:\GAMES\FOF\SRVB\SERVER\EXTENSIONS\RELEASE\CLIENT_UTILS.EXP
