^D:\GAMES\FOF\SRVB\SERVER\EXTENSIONS\CLIENT_SPRITES\RELEASE\CLIENT_SPRITES.DLL.INTERMEDIATE.MANIFEST
D:\GAMES\FOF\SRVB\SERVER\EXTENSIONS\RELEASE\CLIENT_SPRITES.DLL
^D:\GAMES\FOF\SRVB\SERVER\EXTENSIONS\CLIENT_SPRITES\RELEASE\CLIENT_UTILS.DLL.INTERMEDIATE.MANIFEST
D:\GAMES\FOF\SRVB\SERVER\EXTENSIONS\RELEASE\CLIENT_UTILS.DLL
