^D:\FOREVERSCRIPTS\FONLINERELOADED2NDSEASONPART1\SERVER\EXTENSIONS\BUFFER_LAZY\BUFFER_LAZY.CPP
/c /I..\3rdParty\StlPort /I..\3rdParty\angelscript\include /ZI /nologo /W3 /WX- /Od /Oy- /D _MBCS /Gm /EHsc /RTC1 /MT /GS /fp:precise /Zc:wchar_t /Zc:forScope /Fo"DEBUG\\" /Fd"DEBUG\VC120.PDB" /Gd /TP /analyze- D:\FOREVERSCRIPTS\FONLINERELOADED2NDSEASONPART1\SERVER\EXTENSIONS\BUFFER_LAZY\BUFFER_LAZY.CPP
^D:\FOREVERSCRIPTS\FONLINERELOADED2NDSEASONPART1\SERVER\EXTENSIONS\ONLINE_STATS\CLIENT_ONLINE_STATS.CPP
/c /I..\3rdParty\StlPort /I..\3rdParty\angelscript\include /ZI /nologo /W3 /WX- /Od /Oy- /D _MBCS /Gm /EHsc /RTC1 /MT /GS /fp:precise /Zc:wchar_t /Zc:forScope /Fo"DEBUG\\" /Fd"DEBUG\VC120.PDB" /Gd /TP /analyze- D:\FOREVERSCRIPTS\FONLINERELOADED2NDSEASONPART1\SERVER\EXTENSIONS\ONLINE_STATS\CLIENT_ONLINE_STATS.CPP
^D:\FOREVERSCRIPTS\FONLINERELOADED2NDSEASONPART1\SERVER\EXTENSIONS\CLIENT_PARAMETERS\ANGELSCRIPT.CPP
/c /I..\3rdParty\StlPort /I..\3rdParty\angelscript\include /ZI /nologo /W3 /WX- /Od /Oy- /D _MBCS /Gm /EHsc /RTC1 /MT /GS /fp:precise /Zc:wchar_t /Zc:forScope /Fo"DEBUG\\" /Fd"DEBUG\VC120.PDB" /Gd /TP /analyze- D:\FOREVERSCRIPTS\FONLINERELOADED2NDSEASONPART1\SERVER\EXTENSIONS\CLIENT_PARAMETERS\ANGELSCRIPT.CPP
^D:\FOREVERSCRIPTS\FONLINERELOADED2NDSEASONPART1\SERVER\EXTENSIONS\CLIENT_PARAMETERS\PARAMETERS_CLIENT.CPP
/c /I..\3rdParty\StlPort /I..\3rdParty\angelscript\include /ZI /nologo /W3 /WX- /Od /Oy- /D _MBCS /Gm /EHsc /RTC1 /MT /GS /fp:precise /Zc:wchar_t /Zc:forScope /Fo"DEBUG\\" /Fd"DEBUG\VC120.PDB" /Gd /TP /analyze- D:\FOREVERSCRIPTS\FONLINERELOADED2NDSEASONPART1\SERVER\EXTENSIONS\CLIENT_PARAMETERS\PARAMETERS_CLIENT.CPP
^D:\FOREVERSCRIPTS\FONLINERELOADED2NDSEASONPART1\SERVER\EXTENSIONS\CLIENT_PARAMETERS\UTILS.CPP
/c /I..\3rdParty\StlPort /I..\3rdParty\angelscript\include /ZI /nologo /W3 /WX- /Od /Oy- /D _MBCS /Gm /EHsc /RTC1 /MT /GS /fp:precise /Zc:wchar_t /Zc:forScope /Fo"DEBUG\\" /Fd"DEBUG\VC120.PDB" /Gd /TP /analyze- D:\FOREVERSCRIPTS\FONLINERELOADED2NDSEASONPART1\SERVER\EXTENSIONS\CLIENT_PARAMETERS\UTILS.CPP
^D:\FOREVERSCRIPTS\FONLINERELOADED2NDSEASONPART1\SERVER\EXTENSIONS\ONLINE_STATS\XFIREGAMECLIENT.CPP
/c /I..\3rdParty\StlPort /I..\3rdParty\angelscript\include /ZI /nologo /W3 /WX- /Od /Oy- /D _MBCS /Gm /EHsc /RTC1 /MT /GS /fp:precise /Zc:wchar_t /Zc:forScope /Fo"DEBUG\\" /Fd"DEBUG\VC120.PDB" /Gd /TP /analyze- D:\FOREVERSCRIPTS\FONLINERELOADED2NDSEASONPART1\SERVER\EXTENSIONS\ONLINE_STATS\XFIREGAMECLIENT.CPP
