^D:\FOREVERSCRIPTS\FONLINERELOADED2NDSEASONPART1\SERVER\EXTENSIONS\BUFFER_LAZY\BUFFER_LAZY.CPP|D:\FOREVERSCRIPTS\FONLINERELOADED2NDSEASONPART1\SERVER\EXTENSIONS\CLIENT_PARAMETERS\ANGELSCRIPT.CPP|D:\FOREVERSCRIPTS\FONLINERELOADED2NDSEASONPART1\SERVER\EXTENSIONS\CLIENT_PARAMETERS\PARAMETERS_CLIENT.CPP|D:\FOREVERSCRIPTS\FONLINERELOADED2NDSEASONPART1\SERVER\EXTENSIONS\CLIENT_PARAMETERS\UTILS.CPP|D:\FOREVERSCRIPTS\FONLINERELOADED2NDSEASONPART1\SERVER\EXTENSIONS\ONLINE_STATS\CLIENT_ONLINE_STATS.CPP|D:\FOREVERSCRIPTS\FONLINERELOADED2NDSEASONPART1\SERVER\EXTENSIONS\ONLINE_STATS\XFIREGAMECLIENT.CPP
D:\FOREVERSCRIPTS\FONLINERELOADED2NDSEASONPART1\SERVER\EXTENSIONS\CLIENT_PARAMETERS\DEBUG\VC120.PDB
D:\FOREVERSCRIPTS\FONLINERELOADED2NDSEASONPART1\SERVER\EXTENSIONS\CLIENT_PARAMETERS\DEBUG\VC120.IDB
D:\FOREVERSCRIPTS\FONLINERELOADED2NDSEASONPART1\SERVER\EXTENSIONS\CLIENT_PARAMETERS\DEBUG\XFIREGAMECLIENT.OBJ
^D:\FOREVERSCRIPTS\FONLINERELOADED2NDSEASONPART1\SERVER\EXTENSIONS\BUFFER_LAZY\BUFFER_LAZY.CPP
D:\FOREVERSCRIPTS\FONLINERELOADED2NDSEASONPART1\SERVER\EXTENSIONS\CLIENT_PARAMETERS\DEBUG\VC120.PDB
^D:\FOREVERSCRIPTS\FONLINERELOADED2NDSEASONPART1\SERVER\EXTENSIONS\ONLINE_STATS\CLIENT_ONLINE_STATS.CPP
D:\FOREVERSCRIPTS\FONLINERELOADED2NDSEASONPART1\SERVER\EXTENSIONS\CLIENT_PARAMETERS\DEBUG\VC120.PDB
^D:\FOREVERSCRIPTS\FONLINERELOADED2NDSEASONPART1\SERVER\EXTENSIONS\CLIENT_PARAMETERS\ANGELSCRIPT.CPP
D:\FOREVERSCRIPTS\FONLINERELOADED2NDSEASONPART1\SERVER\EXTENSIONS\CLIENT_PARAMETERS\DEBUG\VC120.PDB
^D:\FOREVERSCRIPTS\FONLINERELOADED2NDSEASONPART1\SERVER\EXTENSIONS\CLIENT_PARAMETERS\PARAMETERS_CLIENT.CPP
D:\FOREVERSCRIPTS\FONLINERELOADED2NDSEASONPART1\SERVER\EXTENSIONS\CLIENT_PARAMETERS\DEBUG\VC120.PDB
^D:\FOREVERSCRIPTS\FONLINERELOADED2NDSEASONPART1\SERVER\EXTENSIONS\CLIENT_PARAMETERS\UTILS.CPP
D:\FOREVERSCRIPTS\FONLINERELOADED2NDSEASONPART1\SERVER\EXTENSIONS\CLIENT_PARAMETERS\DEBUG\VC120.PDB
^D:\FOREVERSCRIPTS\FONLINERELOADED2NDSEASONPART1\SERVER\EXTENSIONS\ONLINE_STATS\XFIREGAMECLIENT.CPP
D:\FOREVERSCRIPTS\FONLINERELOADED2NDSEASONPART1\SERVER\EXTENSIONS\CLIENT_PARAMETERS\DEBUG\VC120.PDB
^D:\FOREVERSCRIPTS\FONLINERELOADED2NDSEASONPART1\SERVER\EXTENSIONS\BUFFER_LAZY\BUFFER_LAZY.CPP|D:\FOREVERSCRIPTS\FONLINERELOADED2NDSEASONPART1\SERVER\EXTENSIONS\CLIENT_PARAMETERS\ANGELSCRIPT.CPP|D:\FOREVERSCRIPTS\FONLINERELOADED2NDSEASONPART1\SERVER\EXTENSIONS\CLIENT_PARAMETERS\PARAMETERS_CLIENT.CPP|D:\FOREVERSCRIPTS\FONLINERELOADED2NDSEASONPART1\SERVER\EXTENSIONS\CLIENT_PARAMETERS\UTILS.CPP|D:\FOREVERSCRIPTS\FONLINERELOADED2NDSEASONPART1\SERVER\EXTENSIONS\ONLINE_STATS\CLIENT_ONLINE_STATS.CPP
D:\FOREVERSCRIPTS\FONLINERELOADED2NDSEASONPART1\SERVER\EXTENSIONS\CLIENT_PARAMETERS\DEBUG\VC120.PDB
D:\FOREVERSCRIPTS\FONLINERELOADED2NDSEASONPART1\SERVER\EXTENSIONS\CLIENT_PARAMETERS\DEBUG\VC120.IDB
