^D:\GAMES\FOF\SRVB\SERVER\EXTENSIONS\ONLINE_STATS\ONLINE_STATS.CPP
C:\PROGRAM FILES (X86)\MICROSOFT VISUAL STUDIO 10.0\VC\BIN\1033\CLUI.DLL
C:\WINDOWS\GLOBALIZATION\SORTING\SORTDEFAULT.NLS
C:\WINDOWS\SYSTEM32\RSAENH.DLL
C:\WINDOWS\SYSTEM32\TZRES.DLL
D:\GAMES\FOF\SRVB\SERVER\EXTENSIONS\3RDPARTY\STLPORT\STDIO.H
D:\GAMES\FOF\SRVB\SERVER\EXTENSIONS\3RDPARTY\STLPORT\STL\_CPROLOG.H
D:\GAMES\FOF\SRVB\SERVER\EXTENSIONS\3RDPARTY\STLPORT\STL\CONFIG\FEATURES.H
D:\GAMES\FOF\SRVB\SERVER\EXTENSIONS\3RDPARTY\STLPORT\STL\_STLPORT_VERSION.H
D:\GAMES\FOF\SRVB\SERVER\EXTENSIONS\3RDPARTY\STLPORT\STL\CONFIG\USER_CONFIG.H
D:\GAMES\FOF\SRVB\SERVER\EXTENSIONS\3RDPARTY\STLPORT\STL\CONFIG\COMPAT.H
D:\GAMES\FOF\SRVB\SERVER\EXTENSIONS\3RDPARTY\STLPORT\STL\CONFIG\HOST.H
D:\GAMES\FOF\SRVB\SERVER\EXTENSIONS\3RDPARTY\STLPORT\STL\CONFIG\_SYSTEM.H
D:\GAMES\FOF\SRVB\SERVER\EXTENSIONS\3RDPARTY\STLPORT\STL\CONFIG\_MSVC.H
D:\GAMES\FOF\SRVB\SERVER\EXTENSIONS\3RDPARTY\STLPORT\STL\CONFIG\_DETECT_DLL_OR_LIB.H
D:\GAMES\FOF\SRVB\SERVER\EXTENSIONS\3RDPARTY\STLPORT\STL\CONFIG\_AUTO_LINK.H
D:\GAMES\FOF\SRVB\SERVER\EXTENSIONS\3RDPARTY\STLPORT\STL\CONFIG\_FEEDBACK.H
D:\GAMES\FOF\SRVB\SERVER\EXTENSIONS\3RDPARTY\STLPORT\STL\CONFIG\_WINDOWS.H
D:\GAMES\FOF\SRVB\SERVER\EXTENSIONS\3RDPARTY\STLPORT\STL\CONFIG\STL_CONFIX.H
D:\GAMES\FOF\SRVB\SERVER\EXTENSIONS\3RDPARTY\STLPORT\STL\CONFIG\_NATIVE_HEADERS.H
D:\GAMES\FOF\SRVB\SERVER\EXTENSIONS\3RDPARTY\STLPORT\STL\CONFIG\_PROLOG.H
D:\GAMES\FOF\SRVB\SERVER\EXTENSIONS\3RDPARTY\STLPORT\STL\CONFIG\_WARNINGS_OFF.H
C:\PROGRAM FILES (X86)\MICROSOFT VISUAL STUDIO 10.0\VC\INCLUDE\STDIO.H
C:\PROGRAM FILES (X86)\MICROSOFT VISUAL STUDIO 10.0\VC\INCLUDE\CRTDEFS.H
C:\PROGRAM FILES (X86)\MICROSOFT VISUAL STUDIO 10.0\VC\INCLUDE\SAL.H
C:\PROGRAM FILES (X86)\MICROSOFT VISUAL STUDIO 10.0\VC\INCLUDE\CODEANALYSIS\SOURCEANNOTATIONS.H
C:\PROGRAM FILES (X86)\MICROSOFT VISUAL STUDIO 10.0\VC\INCLUDE\VADEFS.H
C:\PROGRAM FILES (X86)\MICROSOFT VISUAL STUDIO 10.0\VC\INCLUDE\SWPRINTF.INL
D:\GAMES\FOF\SRVB\SERVER\EXTENSIONS\3RDPARTY\STLPORT\STL\_EPILOG.H
D:\GAMES\FOF\SRVB\SERVER\EXTENSIONS\3RDPARTY\STLPORT\STL\CONFIG\_EPILOG.H
D:\GAMES\FOF\SRVB\SERVER\EXTENSIONS\3RDPARTY\STLPORT\STL\_CONFIG_COMPAT_POST.H
D:\GAMES\FOF\SRVB\SERVER\EXTENSIONS\ONLINE_STATS\ONLINE_STATS.H
D:\GAMES\FOF\SRVB\SERVER\EXTENSIONS\PARAMETERS\PARAMETERS.CPP
D:\GAMES\FOF\SRVB\SERVER\EXTENSIONS\FONLINE2238.H
D:\GAMES\FOF\SRVB\SERVER\SCRIPTS\_DEFINES.FOS
D:\GAMES\FOF\SRVB\SERVER\SCRIPTS\_BASETYPES.FOS
D:\GAMES\FOF\SRVB\SERVER\EXTENSIONS\FONLINE.H
D:\GAMES\FOF\SRVB\SERVER\EXTENSIONS\3RDPARTY\STLPORT\STDLIB.H
D:\GAMES\FOF\SRVB\SERVER\EXTENSIONS\3RDPARTY\STLPORT\ERRNO.H
C:\PROGRAM FILES (X86)\MICROSOFT VISUAL STUDIO 10.0\VC\INCLUDE\ERRNO.H
C:\PROGRAM FILES (X86)\MICROSOFT VISUAL STUDIO 10.0\VC\INCLUDE\STDLIB.H
D:\GAMES\FOF\SRVB\SERVER\EXTENSIONS\3RDPARTY\STLPORT\LIMITS.H
C:\PROGRAM FILES (X86)\MICROSOFT VISUAL STUDIO 10.0\VC\INCLUDE\LIMITS.H
D:\GAMES\FOF\SRVB\SERVER\EXTENSIONS\3RDPARTY\STLPORT\STRING.H
C:\PROGRAM FILES (X86)\MICROSOFT VISUAL STUDIO 10.0\VC\INCLUDE\STRING.H
D:\GAMES\FOF\SRVB\SERVER\EXTENSIONS\3RDPARTY\STLPORT\MATH.H
C:\PROGRAM FILES (X86)\MICROSOFT VISUAL STUDIO 10.0\VC\INCLUDE\MATH.H
D:\GAMES\FOF\SRVB\SERVER\EXTENSIONS\3RDPARTY\STLPORT\STRING
D:\GAMES\FOF\SRVB\SERVER\EXTENSIONS\3RDPARTY\STLPORT\STL\_PROLOG.H
D:\GAMES\FOF\SRVB\SERVER\EXTENSIONS\3RDPARTY\STLPORT\STL\DEBUG\_DEBUG.H
D:\GAMES\FOF\SRVB\SERVER\EXTENSIONS\3RDPARTY\STLPORT\STL\_STRING.H
D:\GAMES\FOF\SRVB\SERVER\EXTENSIONS\3RDPARTY\STLPORT\STL\_ALLOC.H
D:\GAMES\FOF\SRVB\SERVER\EXTENSIONS\3RDPARTY\STLPORT\STL\_CSTDDEF.H
C:\PROGRAM FILES (X86)\MICROSOFT VISUAL STUDIO 10.0\VC\INCLUDE\CSTDDEF
C:\PROGRAM FILES (X86)\MICROSOFT VISUAL STUDIO 10.0\VC\INCLUDE\YVALS.H
C:\PROGRAM FILES (X86)\MICROSOFT VISUAL STUDIO 10.0\VC\INCLUDE\USE_ANSI.H
D:\GAMES\FOF\SRVB\SERVER\EXTENSIONS\3RDPARTY\STLPORT\STDDEF.H
C:\PROGRAM FILES (X86)\MICROSOFT VISUAL STUDIO 10.0\VC\INCLUDE\STDDEF.H
D:\GAMES\FOF\SRVB\SERVER\EXTENSIONS\3RDPARTY\STLPORT\STL\_CSTDLIB.H
C:\PROGRAM FILES (X86)\MICROSOFT VISUAL STUDIO 10.0\VC\INCLUDE\CSTDLIB
D:\GAMES\FOF\SRVB\SERVER\EXTENSIONS\3RDPARTY\STLPORT\STL\_CMATH.H
C:\PROGRAM FILES (X86)\MICROSOFT VISUAL STUDIO 10.0\VC\INCLUDE\CMATH
D:\GAMES\FOF\SRVB\SERVER\EXTENSIONS\3RDPARTY\STLPORT\STL\_CSTRING.H
C:\PROGRAM FILES (X86)\MICROSOFT VISUAL STUDIO 10.0\VC\INCLUDE\CSTRING
D:\GAMES\FOF\SRVB\SERVER\EXTENSIONS\3RDPARTY\STLPORT\USING\CSTRING
D:\GAMES\FOF\SRVB\SERVER\EXTENSIONS\3RDPARTY\STLPORT\STL\_ALGOBASE.H
D:\GAMES\FOF\SRVB\SERVER\EXTENSIONS\3RDPARTY\STLPORT\CLIMITS
C:\PROGRAM FILES (X86)\MICROSOFT VISUAL STUDIO 10.0\VC\INCLUDE\CLIMITS
D:\GAMES\FOF\SRVB\SERVER\EXTENSIONS\3RDPARTY\STLPORT\STL\_PAIR.H
D:\GAMES\FOF\SRVB\SERVER\EXTENSIONS\3RDPARTY\STLPORT\STL\TYPE_TRAITS.H
D:\GAMES\FOF\SRVB\SERVER\EXTENSIONS\3RDPARTY\STLPORT\STL\TYPE_MANIPS.H
D:\GAMES\FOF\SRVB\SERVER\EXTENSIONS\3RDPARTY\STLPORT\STL\_MOVE_CONSTRUCT_FWK.H
D:\GAMES\FOF\SRVB\SERVER\EXTENSIONS\3RDPARTY\STLPORT\STL\_ITERATOR_BASE.H
D:\GAMES\FOF\SRVB\SERVER\EXTENSIONS\3RDPARTY\STLPORT\STL\_PTRS_SPECIALIZE.H
D:\GAMES\FOF\SRVB\SERVER\EXTENSIONS\3RDPARTY\STLPORT\STL\_ALGOBASE.C
D:\GAMES\FOF\SRVB\SERVER\EXTENSIONS\3RDPARTY\STLPORT\STL\_FUNCTION_BASE.H
D:\GAMES\FOF\SRVB\SERVER\EXTENSIONS\3RDPARTY\STLPORT\STL\_ITERATOR.H
D:\GAMES\FOF\SRVB\SERVER\EXTENSIONS\3RDPARTY\STLPORT\STL\_NEW.H
C:\PROGRAM FILES (X86)\MICROSOFT VISUAL STUDIO 10.0\VC\INCLUDE\NEW
D:\GAMES\FOF\SRVB\SERVER\EXTENSIONS\3RDPARTY\STLPORT\EXCEPTION
C:\PROGRAM FILES (X86)\MICROSOFT VISUAL STUDIO 10.0\VC\INCLUDE\EXCEPTION
C:\PROGRAM FILES (X86)\MICROSOFT VISUAL STUDIO 10.0\VC\INCLUDE\XSTDDEF
D:\GAMES\FOF\SRVB\SERVER\EXTENSIONS\3RDPARTY\STLPORT\CSTDDEF
D:\GAMES\FOF\SRVB\SERVER\EXTENSIONS\3RDPARTY\STLPORT\STL\_CONSTRUCT.H
D:\GAMES\FOF\SRVB\SERVER\EXTENSIONS\3RDPARTY\STLPORT\STL\_STRING_FWD.H
D:\GAMES\FOF\SRVB\SERVER\EXTENSIONS\3RDPARTY\STLPORT\STL\_IOSFWD.H
D:\GAMES\FOF\SRVB\SERVER\EXTENSIONS\3RDPARTY\STLPORT\STL\CHAR_TRAITS.H
D:\GAMES\FOF\SRVB\SERVER\EXTENSIONS\3RDPARTY\STLPORT\STL\_CWCHAR.H
C:\PROGRAM FILES (X86)\MICROSOFT VISUAL STUDIO 10.0\VC\INCLUDE\CWCHAR
D:\GAMES\FOF\SRVB\SERVER\EXTENSIONS\3RDPARTY\STLPORT\WCHAR.H
C:\PROGRAM FILES (X86)\MICROSOFT VISUAL STUDIO 10.0\VC\INCLUDE\WCHAR.H
C:\PROGRAM FILES (X86)\MICROSOFT VISUAL STUDIO 10.0\VC\INCLUDE\WTIME.INL
D:\GAMES\FOF\SRVB\SERVER\EXTENSIONS\3RDPARTY\STLPORT\STL\_MBSTATE_T.H
D:\GAMES\FOF\SRVB\SERVER\EXTENSIONS\3RDPARTY\STLPORT\STL\_UNINITIALIZED.H
D:\GAMES\FOF\SRVB\SERVER\EXTENSIONS\3RDPARTY\STLPORT\STL\_STRING_BASE.H
D:\GAMES\FOF\SRVB\SERVER\EXTENSIONS\3RDPARTY\STLPORT\STL\_STRING_NPOS.H
D:\GAMES\FOF\SRVB\SERVER\EXTENSIONS\3RDPARTY\STLPORT\STL\_STRING_OPERATORS.H
D:\GAMES\FOF\SRVB\SERVER\EXTENSIONS\3RDPARTY\STLPORT\STL\_STRING.C
D:\GAMES\FOF\SRVB\SERVER\EXTENSIONS\3RDPARTY\STLPORT\STL\_CTRAITS_FNS.H
D:\GAMES\FOF\SRVB\SERVER\EXTENSIONS\3RDPARTY\STLPORT\STL\_FUNCTION.H
D:\GAMES\FOF\SRVB\SERVER\EXTENSIONS\3RDPARTY\STLPORT\STL\_FUNCTION_ADAPTORS.H
D:\GAMES\FOF\SRVB\SERVER\EXTENSIONS\3RDPARTY\STLPORT\STL\_RANGE_ERRORS.H
D:\GAMES\FOF\SRVB\SERVER\EXTENSIONS\3RDPARTY\STLPORT\STL\_STRING_HASH.H
D:\GAMES\FOF\SRVB\SERVER\EXTENSIONS\3RDPARTY\STLPORT\STL\_HASH_FUN.H
D:\GAMES\FOF\SRVB\SERVER\EXTENSIONS\3RDPARTY\STLPORT\STL\_STRING_IO.H
D:\GAMES\FOF\SRVB\SERVER\EXTENSIONS\3RDPARTY\STLPORT\STL\_OSTREAM.H
D:\GAMES\FOF\SRVB\SERVER\EXTENSIONS\3RDPARTY\STLPORT\STL\_IOS.H
D:\GAMES\FOF\SRVB\SERVER\EXTENSIONS\3RDPARTY\STLPORT\STL\_IOS_BASE.H
D:\GAMES\FOF\SRVB\SERVER\EXTENSIONS\3RDPARTY\STLPORT\STL\_STDEXCEPT_BASE.H
D:\GAMES\FOF\SRVB\SERVER\EXTENSIONS\3RDPARTY\STLPORT\STL\_EXCEPTION.H
D:\GAMES\FOF\SRVB\SERVER\EXTENSIONS\3RDPARTY\STLPORT\STL\_LOCALE.H
D:\GAMES\FOF\SRVB\SERVER\EXTENSIONS\3RDPARTY\STLPORT\STL\_THREADS.H
D:\GAMES\FOF\SRVB\SERVER\EXTENSIONS\3RDPARTY\STLPORT\STL\_THREADS.C
D:\GAMES\FOF\SRVB\SERVER\EXTENSIONS\3RDPARTY\STLPORT\STL\_FACETS_FWD.H
D:\GAMES\FOF\SRVB\SERVER\EXTENSIONS\3RDPARTY\STLPORT\STL\_CTYPE.H
D:\GAMES\FOF\SRVB\SERVER\EXTENSIONS\3RDPARTY\STLPORT\STL\C_LOCALE.H
D:\GAMES\FOF\SRVB\SERVER\EXTENSIONS\3RDPARTY\STLPORT\STL\_NUMPUNCT.H
D:\GAMES\FOF\SRVB\SERVER\EXTENSIONS\3RDPARTY\STLPORT\STL\_IOS.C
D:\GAMES\FOF\SRVB\SERVER\EXTENSIONS\3RDPARTY\STLPORT\STL\_STREAMBUF.H
D:\GAMES\FOF\SRVB\SERVER\EXTENSIONS\3RDPARTY\STLPORT\STL\_STREAMBUF.C
D:\GAMES\FOF\SRVB\SERVER\EXTENSIONS\3RDPARTY\STLPORT\STL\_OSTREAMBUF_ITERATOR.H
D:\GAMES\FOF\SRVB\SERVER\EXTENSIONS\3RDPARTY\STLPORT\STL\_OSTREAM.C
D:\GAMES\FOF\SRVB\SERVER\EXTENSIONS\3RDPARTY\STLPORT\STL\_NUM_PUT.H
D:\GAMES\FOF\SRVB\SERVER\EXTENSIONS\3RDPARTY\STLPORT\STL\_IOSTREAM_STRING.H
D:\GAMES\FOF\SRVB\SERVER\EXTENSIONS\3RDPARTY\STLPORT\STL\_NUM_PUT.C
D:\GAMES\FOF\SRVB\SERVER\EXTENSIONS\3RDPARTY\STLPORT\STL\_LIMITS.H
D:\GAMES\FOF\SRVB\SERVER\EXTENSIONS\3RDPARTY\STLPORT\CFLOAT
C:\PROGRAM FILES (X86)\MICROSOFT VISUAL STUDIO 10.0\VC\INCLUDE\CFLOAT
D:\GAMES\FOF\SRVB\SERVER\EXTENSIONS\3RDPARTY\STLPORT\FLOAT.H
C:\PROGRAM FILES (X86)\MICROSOFT VISUAL STUDIO 10.0\VC\INCLUDE\FLOAT.H
C:\PROGRAM FILES (X86)\MICROSOFT VISUAL STUDIO 10.0\VC\INCLUDE\CRTWRN.H
D:\GAMES\FOF\SRVB\SERVER\EXTENSIONS\3RDPARTY\STLPORT\STL\_LIMITS.C
D:\GAMES\FOF\SRVB\SERVER\EXTENSIONS\3RDPARTY\STLPORT\STL\_ISTREAM.H
D:\GAMES\FOF\SRVB\SERVER\EXTENSIONS\3RDPARTY\STLPORT\STL\_ISTREAMBUF_ITERATOR.H
D:\GAMES\FOF\SRVB\SERVER\EXTENSIONS\3RDPARTY\STLPORT\STL\_ISTREAM.C
D:\GAMES\FOF\SRVB\SERVER\EXTENSIONS\3RDPARTY\STLPORT\STL\_NUM_GET.H
D:\GAMES\FOF\SRVB\SERVER\EXTENSIONS\3RDPARTY\STLPORT\STL\_NUM_GET.C
D:\GAMES\FOF\SRVB\SERVER\EXTENSIONS\3RDPARTY\STLPORT\STL\_STRING_IO.C
D:\GAMES\FOF\SRVB\SERVER\EXTENSIONS\3RDPARTY\STLPORT\VECTOR
D:\GAMES\FOF\SRVB\SERVER\EXTENSIONS\3RDPARTY\STLPORT\STL\_VECTOR.H
D:\GAMES\FOF\SRVB\SERVER\EXTENSIONS\3RDPARTY\STLPORT\STL\_VECTOR.C
D:\GAMES\FOF\SRVB\SERVER\EXTENSIONS\3RDPARTY\STLPORT\STL\_BVECTOR.H
D:\GAMES\FOF\SRVB\SERVER\EXTENSIONS\3RDPARTY\STLPORT\STL\_RELOPS_CONT.H
D:\GAMES\FOF\SRVB\SERVER\EXTENSIONS\3RDPARTY\STLPORT\SET
D:\GAMES\FOF\SRVB\SERVER\EXTENSIONS\3RDPARTY\STLPORT\STL\_SET.H
D:\GAMES\FOF\SRVB\SERVER\EXTENSIONS\3RDPARTY\STLPORT\STL\_TREE.H
D:\GAMES\FOF\SRVB\SERVER\EXTENSIONS\3RDPARTY\STLPORT\STL\_TREE.C
D:\GAMES\FOF\SRVB\SERVER\EXTENSIONS\3RDPARTY\STLPORT\MAP
D:\GAMES\FOF\SRVB\SERVER\EXTENSIONS\3RDPARTY\STLPORT\STL\_MAP.H
D:\GAMES\FOF\SRVB\SERVER\EXTENSIONS\ANGELSCRIPT\ANGELSCRIPT.H
D:\GAMES\FOF\SRVB\SERVER\EXTENSIONS\ANGELSCRIPT\SCRIPTSTRING.H
D:\GAMES\FOF\SRVB\SERVER\EXTENSIONS\ANGELSCRIPT\SCRIPTARRAY.H
D:\GAMES\FOF\SRVB\SERVER\EXTENSIONS\ANGELSCRIPT\SCRIPTFILE.H
D:\GAMES\FOF\SRVB\SERVER\EXTENSIONS\ANGELSCRIPT\SCRIPTDICTIONARY.H
D:\GAMES\FOF\SRVB\SERVER\EXTENSIONS\ANGELSCRIPT\SCRIPTANY.H
D:\GAMES\FOF\SRVB\SERVER\EXTENSIONS\ANGELSCRIPT\SCRIPTMATH.H
D:\GAMES\FOF\SRVB\SERVER\EXTENSIONS\3RDPARTY\STLPORT\STRSTREAM
D:\GAMES\FOF\SRVB\SERVER\EXTENSIONS\3RDPARTY\STLPORT\STL\_IOSERR.H
D:\GAMES\FOF\SRVB\SERVER\EXTENSIONS\3RDPARTY\STLPORT\STL\_STRSTREAM.H
C:\PROGRAM FILES (X86)\MICROSOFT SDKS\WINDOWS\V7.0A\INCLUDE\WINDOWS.H
C:\PROGRAM FILES (X86)\MICROSOFT SDKS\WINDOWS\V7.0A\INCLUDE\SDKDDKVER.H
C:\PROGRAM FILES (X86)\MICROSOFT VISUAL STUDIO 10.0\VC\INCLUDE\EXCPT.H
D:\GAMES\FOF\SRVB\SERVER\EXTENSIONS\3RDPARTY\STLPORT\STDARG.H
C:\PROGRAM FILES (X86)\MICROSOFT VISUAL STUDIO 10.0\VC\INCLUDE\STDARG.H
C:\PROGRAM FILES (X86)\MICROSOFT SDKS\WINDOWS\V7.0A\INCLUDE\WINDEF.H
C:\PROGRAM FILES (X86)\MICROSOFT SDKS\WINDOWS\V7.0A\INCLUDE\WINNT.H
D:\GAMES\FOF\SRVB\SERVER\EXTENSIONS\3RDPARTY\STLPORT\CTYPE.H
C:\PROGRAM FILES (X86)\MICROSOFT VISUAL STUDIO 10.0\VC\INCLUDE\CTYPE.H
C:\PROGRAM FILES (X86)\MICROSOFT SDKS\WINDOWS\V7.0A\INCLUDE\SPECSTRINGS.H
C:\PROGRAM FILES (X86)\MICROSOFT SDKS\WINDOWS\V7.0A\INCLUDE\SAL_SUPP.H
C:\PROGRAM FILES (X86)\MICROSOFT SDKS\WINDOWS\V7.0A\INCLUDE\SPECSTRINGS_SUPP.H
C:\PROGRAM FILES (X86)\MICROSOFT SDKS\WINDOWS\V7.0A\INCLUDE\SPECSTRINGS_STRICT.H
C:\PROGRAM FILES (X86)\MICROSOFT SDKS\WINDOWS\V7.0A\INCLUDE\SPECSTRINGS_UNDEF.H
C:\PROGRAM FILES (X86)\MICROSOFT SDKS\WINDOWS\V7.0A\INCLUDE\DRIVERSPECS.H
C:\PROGRAM FILES (X86)\MICROSOFT SDKS\WINDOWS\V7.0A\INCLUDE\SDV_DRIVERSPECS.H
C:\PROGRAM FILES (X86)\MICROSOFT SDKS\WINDOWS\V7.0A\INCLUDE\KERNELSPECS.H
C:\PROGRAM FILES (X86)\MICROSOFT SDKS\WINDOWS\V7.0A\INCLUDE\BASETSD.H
C:\PROGRAM FILES (X86)\MICROSOFT SDKS\WINDOWS\V7.0A\INCLUDE\GUIDDEF.H
C:\PROGRAM FILES (X86)\MICROSOFT SDKS\WINDOWS\V7.0A\INCLUDE\PSHPACK4.H
C:\PROGRAM FILES (X86)\MICROSOFT SDKS\WINDOWS\V7.0A\INCLUDE\POPPACK.H
C:\PROGRAM FILES (X86)\MICROSOFT SDKS\WINDOWS\V7.0A\INCLUDE\PSHPACK2.H
C:\PROGRAM FILES (X86)\MICROSOFT SDKS\WINDOWS\V7.0A\INCLUDE\PSHPACK8.H
C:\PROGRAM FILES (X86)\MICROSOFT SDKS\WINDOWS\V7.0A\INCLUDE\KTMTYPES.H
C:\PROGRAM FILES (X86)\MICROSOFT SDKS\WINDOWS\V7.0A\INCLUDE\WINBASE.H
C:\PROGRAM FILES (X86)\MICROSOFT SDKS\WINDOWS\V7.0A\INCLUDE\WINERROR.H
C:\PROGRAM FILES (X86)\MICROSOFT SDKS\WINDOWS\V7.0A\INCLUDE\WINGDI.H
C:\PROGRAM FILES (X86)\MICROSOFT SDKS\WINDOWS\V7.0A\INCLUDE\PSHPACK1.H
C:\PROGRAM FILES (X86)\MICROSOFT SDKS\WINDOWS\V7.0A\INCLUDE\WINUSER.H
C:\PROGRAM FILES (X86)\MICROSOFT SDKS\WINDOWS\V7.0A\INCLUDE\TVOUT.H
C:\PROGRAM FILES (X86)\MICROSOFT SDKS\WINDOWS\V7.0A\INCLUDE\WINNLS.H
C:\PROGRAM FILES (X86)\MICROSOFT SDKS\WINDOWS\V7.0A\INCLUDE\WINCON.H
C:\PROGRAM FILES (X86)\MICROSOFT SDKS\WINDOWS\V7.0A\INCLUDE\WINVER.H
C:\PROGRAM FILES (X86)\MICROSOFT SDKS\WINDOWS\V7.0A\INCLUDE\VERRSRC.H
C:\PROGRAM FILES (X86)\MICROSOFT SDKS\WINDOWS\V7.0A\INCLUDE\WINREG.H
C:\PROGRAM FILES (X86)\MICROSOFT SDKS\WINDOWS\V7.0A\INCLUDE\REASON.H
C:\PROGRAM FILES (X86)\MICROSOFT SDKS\WINDOWS\V7.0A\INCLUDE\WINNETWK.H
C:\PROGRAM FILES (X86)\MICROSOFT SDKS\WINDOWS\V7.0A\INCLUDE\WNNC.H
C:\PROGRAM FILES (X86)\MICROSOFT SDKS\WINDOWS\V7.0A\INCLUDE\CDERR.H
C:\PROGRAM FILES (X86)\MICROSOFT SDKS\WINDOWS\V7.0A\INCLUDE\DDE.H
C:\PROGRAM FILES (X86)\MICROSOFT SDKS\WINDOWS\V7.0A\INCLUDE\DDEML.H
C:\PROGRAM FILES (X86)\MICROSOFT SDKS\WINDOWS\V7.0A\INCLUDE\DLGS.H
C:\PROGRAM FILES (X86)\MICROSOFT SDKS\WINDOWS\V7.0A\INCLUDE\LZEXPAND.H
C:\PROGRAM FILES (X86)\MICROSOFT SDKS\WINDOWS\V7.0A\INCLUDE\MMSYSTEM.H
C:\PROGRAM FILES (X86)\MICROSOFT SDKS\WINDOWS\V7.0A\INCLUDE\NB30.H
C:\PROGRAM FILES (X86)\MICROSOFT SDKS\WINDOWS\V7.0A\INCLUDE\RPC.H
C:\PROGRAM FILES (X86)\MICROSOFT SDKS\WINDOWS\V7.0A\INCLUDE\RPCDCE.H
C:\PROGRAM FILES (X86)\MICROSOFT SDKS\WINDOWS\V7.0A\INCLUDE\RPCDCEP.H
C:\PROGRAM FILES (X86)\MICROSOFT SDKS\WINDOWS\V7.0A\INCLUDE\RPCNSI.H
C:\PROGRAM FILES (X86)\MICROSOFT SDKS\WINDOWS\V7.0A\INCLUDE\RPCNTERR.H
C:\PROGRAM FILES (X86)\MICROSOFT SDKS\WINDOWS\V7.0A\INCLUDE\RPCASYNC.H
C:\PROGRAM FILES (X86)\MICROSOFT SDKS\WINDOWS\V7.0A\INCLUDE\SHELLAPI.H
C:\PROGRAM FILES (X86)\MICROSOFT SDKS\WINDOWS\V7.0A\INCLUDE\WINPERF.H
C:\PROGRAM FILES (X86)\MICROSOFT SDKS\WINDOWS\V7.0A\INCLUDE\WINSOCK.H
C:\PROGRAM FILES (X86)\MICROSOFT SDKS\WINDOWS\V7.0A\INCLUDE\INADDR.H
C:\PROGRAM FILES (X86)\MICROSOFT SDKS\WINDOWS\V7.0A\INCLUDE\WINCRYPT.H
C:\PROGRAM FILES (X86)\MICROSOFT SDKS\WINDOWS\V7.0A\INCLUDE\BCRYPT.H
C:\PROGRAM FILES (X86)\MICROSOFT SDKS\WINDOWS\V7.0A\INCLUDE\NCRYPT.H
C:\PROGRAM FILES (X86)\MICROSOFT SDKS\WINDOWS\V7.0A\INCLUDE\WINEFS.H
C:\PROGRAM FILES (X86)\MICROSOFT SDKS\WINDOWS\V7.0A\INCLUDE\WINSCARD.H
C:\PROGRAM FILES (X86)\MICROSOFT SDKS\WINDOWS\V7.0A\INCLUDE\WTYPES.H
C:\PROGRAM FILES (X86)\MICROSOFT SDKS\WINDOWS\V7.0A\INCLUDE\RPCNDR.H
C:\PROGRAM FILES (X86)\MICROSOFT SDKS\WINDOWS\V7.0A\INCLUDE\RPCNSIP.H
C:\PROGRAM FILES (X86)\MICROSOFT SDKS\WINDOWS\V7.0A\INCLUDE\RPCSAL.H
C:\PROGRAM FILES (X86)\MICROSOFT SDKS\WINDOWS\V7.0A\INCLUDE\WINIOCTL.H
C:\PROGRAM FILES (X86)\MICROSOFT SDKS\WINDOWS\V7.0A\INCLUDE\WINSMCRD.H
C:\PROGRAM FILES (X86)\MICROSOFT SDKS\WINDOWS\V7.0A\INCLUDE\WINSPOOL.H
C:\PROGRAM FILES (X86)\MICROSOFT SDKS\WINDOWS\V7.0A\INCLUDE\PRSHT.H
C:\PROGRAM FILES (X86)\MICROSOFT SDKS\WINDOWS\V7.0A\INCLUDE\OLE2.H
C:\PROGRAM FILES (X86)\MICROSOFT SDKS\WINDOWS\V7.0A\INCLUDE\OBJBASE.H
C:\PROGRAM FILES (X86)\MICROSOFT SDKS\WINDOWS\V7.0A\INCLUDE\UNKNWN.H
C:\PROGRAM FILES (X86)\MICROSOFT SDKS\WINDOWS\V7.0A\INCLUDE\OBJIDL.H
C:\PROGRAM FILES (X86)\MICROSOFT SDKS\WINDOWS\V7.0A\INCLUDE\CGUID.H
C:\PROGRAM FILES (X86)\MICROSOFT SDKS\WINDOWS\V7.0A\INCLUDE\URLMON.H
C:\PROGRAM FILES (X86)\MICROSOFT SDKS\WINDOWS\V7.0A\INCLUDE\OLEIDL.H
C:\PROGRAM FILES (X86)\MICROSOFT SDKS\WINDOWS\V7.0A\INCLUDE\SERVPROV.H
C:\PROGRAM FILES (X86)\MICROSOFT SDKS\WINDOWS\V7.0A\INCLUDE\MSXML.H
C:\PROGRAM FILES (X86)\MICROSOFT SDKS\WINDOWS\V7.0A\INCLUDE\OAIDL.H
C:\PROGRAM FILES (X86)\MICROSOFT SDKS\WINDOWS\V7.0A\INCLUDE\PROPIDL.H
C:\PROGRAM FILES (X86)\MICROSOFT SDKS\WINDOWS\V7.0A\INCLUDE\OLEAUTO.H
C:\PROGRAM FILES (X86)\MICROSOFT SDKS\WINDOWS\V7.0A\INCLUDE\COMMDLG.H
C:\PROGRAM FILES (X86)\MICROSOFT SDKS\WINDOWS\V7.0A\INCLUDE\STRALIGN.H
C:\PROGRAM FILES (X86)\MICROSOFT SDKS\WINDOWS\V7.0A\INCLUDE\WINSVC.H
C:\PROGRAM FILES (X86)\MICROSOFT SDKS\WINDOWS\V7.0A\INCLUDE\MCX.H
C:\PROGRAM FILES (X86)\MICROSOFT SDKS\WINDOWS\V7.0A\INCLUDE\IMM.H
C:\PROGRAM FILES (X86)\MICROSOFT SDKS\WINDOWS\V7.0A\INCLUDE\IME_CMODES.H
