^D:\FOREVERSCRIPTS\TESTSERVER\SERVER\EXTENSIONS\PARAMETERS\RELEASE\PARAMETERS.DLL.INTERMEDIATE.MANIFEST
/nologo /verbose /outputresource:"D:\foreverscripts\testserver\Server\extensions\Release\parameters.dll;#2" /manifest Release\parameters.dll.intermediate.manifest
^D:\GAMES\FOF\SRVB\SERVER\EXTENSIONS\PARAMETERS\RELEASE\PARAMETERS.DLL.INTERMEDIATE.MANIFEST
/nologo /verbose /outputresource:"D:\Games\FOF\srvb\Server\extensions\Release\parameters.dll;#2" /manifest Release\parameters.dll.intermediate.manifest
