^D:\FOREVERSCRIPTS\TESTSERVER\SERVER\EXTENSIONS\PARAMETERS\RELEASE\PARAMETERS.DLL.INTERMEDIATE.MANIFEST
C:\WINDOWS\REGISTRATION\R00000000000D.CLB
C:\WINDOWS\MICROSOFT.NET\FRAMEWORK\V2.0.50727\MSCORWKS.DLL
C:\WINDOWS\MICROSOFT.NET\FRAMEWORK\V4.0.30319\CLR.DLL
C:\PROGRAM FILES (X86)\MICROSOFT SDKS\WINDOWS\V7.0A\BIN\MT.EXE.CONFIG
D:\FOREVERSCRIPTS\TESTSERVER\SERVER\EXTENSIONS\RELEASE\PARAMETERS.DLL
^D:\GAMES\FOF\SRVB\SERVER\EXTENSIONS\PARAMETERS\RELEASE\PARAMETERS.DLL.INTERMEDIATE.MANIFEST
C:\WINDOWS\MICROSOFT.NET\FRAMEWORK\V2.0.50727\MSCORWKS.DLL
C:\WINDOWS\MICROSOFT.NET\FRAMEWORK\V4.0.30319\CLR.DLL
C:\PROGRAM FILES (X86)\MICROSOFT SDKS\WINDOWS\V7.0A\BIN\MT.EXE.CONFIG
D:\GAMES\FOF\SRVB\SERVER\EXTENSIONS\RELEASE\PARAMETERS.DLL
